Untitled
…
THE QUestion

How often does Caricom disagree and On what issues?

Step 1 - assign numerical value for yes, no , and abstain  using maatch gfucntion as seen in Dr.RObd screen cast 1 yes abstain 0, no -1

cari_votes<-cari_votes%>%mutate(vote_n=match(vote, c("no", "abstain","yes"))-2)

present<-cari_votes%>%group_by(rcid)%>%filter(vote!="absent")

present%>%group_by(rcid)%>%summarise(totalpresent=n())

## # A tibble: 6,080 x 2
##     rcid totalpresent
##    <dbl>        <int>
##  1     3            1
##  2     4            1
##  3     5            1
##  4     7            1
##  5     9            1
##  6    10            1
##  7    16            1
##  8    17            1
##  9    18            1
## 10    19            1
## # ... with 6,070 more rows
…
vote_data%>%filter(vote=="no" & cari=="yes" & issue!="NA" & year>1972)%>%group_by(year, issue)%>%summarise(count=n())

## `summarise()` has grouped output by 'year'. You can override using the `.groups` argument.

## # A tibble: 65 x 3
## # Groups:   year [35]
##     year issue                count
##    <dbl> <fct>                <int>
##  1  1973 Human rights             1
##  2  1973 Palestinian conflict     3
##  3  1974 Palestinian conflict     2
##  4  1975 Economic development     1
##  5  1975 Human rights             8
##  6  1975 Palestinian conflict     5
##  7  1976 Economic development     1
##  8  1976 Human rights             3
##  9  1976 Palestinian conflict     3
## 10  1977 Human rights             2
## # ... with 55 more rows
